<svg xmlns="http://www.w3.org/2000/svg" width="15" height="15" viewBox="0 0 15 15">
    <path fill="#2F9AD3" fill-rule="evenodd" d="M11.529 5.432L6.64 10.541a.556.556 0 0 1-.403.175.556.556 0 0 1-.403-.175L3.6 8.208a.618.618 0 0 1 0-.844.554.554 0 0 1 .808 0l1.829 1.911 4.484-4.687a.554.554 0 0 1 .808 0 .614.614 0 0 1 0 .844M7.5 0a7.5 7.5 0 1 0 0 15 7.5 7.5 0 0 0 0-15"/>
</svg>
